<svg xmlns="http://www.w3.org/2000/svg" width="72" height="66" viewBox="0 0 72 66">
    <g fill="none" fill-rule="evenodd">
        <path d="M-2-4h72v70H-2z"/>
        <g transform="translate(1 1)">
            <path stroke="#000" stroke-linecap="round" stroke-linejoin="round" stroke-width="2" d="M64 31.5V57a7 7 0 0 1-7 7H7a7 7 0 0 1-7-7V7a7 7 0 0 1 7-7h39.5"/>
            <rect width="54" height="54" x="5" y="5" fill="#36BE76" fill-opacity=".105" rx="4"/>
            <path stroke="#36BE76" stroke-linecap="round" stroke-linejoin="round" stroke-width="2" d="M22 28.636L32.286 39 70 1"/>
        </g>
    </g>
</svg>
