<svg xmlns="http://www.w3.org/2000/svg" xmlns:xlink="http://www.w3.org/1999/xlink" width="16" height="18" viewBox="0 0 16 18">
    <defs>
        <path id="a" d="M0 0h18v18H0z"/>
    </defs>
    <g fill="none" fill-rule="evenodd" transform="translate(-1)">
        <mask id="b" fill="#fff">
            <use xlink:href="#a"/>
        </mask>
        <g stroke="#6d5ce7" stroke-width="1.2" mask="url(#b)">
            <path stroke-linecap="round" stroke-linejoin="round" d="M9.813 1.5H4.125C3.228 1.5 2.5 2.172 2.5 3v12c0 .828.728 1.5 1.625 1.5h9.75c.897 0 1.625-.672 1.625-1.5V6.75L9.812 1.5z"/>
            <path stroke-linecap="round" stroke-linejoin="round" d="M9.5 1.5v6h6"/>
            <path d="M5.359 10.486h7M5.359 12.486h4"/>
        </g>
    </g>
</svg>
