<?xml version="1.0" encoding="UTF-8"?>
<svg width="20px" height="16px" viewBox="0 0 20 16" version="1.1" xmlns="http://www.w3.org/2000/svg" xmlns:xlink="http://www.w3.org/1999/xlink">
    <!-- Generator: Sketch 52.6 (67491) - http://www.bohemiancoding.com/sketch -->
    <title>ico-Withdrawal@2x</title>
    <desc>Created with Sketch.</desc>
    <g id="Dashboard" stroke="none" stroke-width="1" fill="none" fill-rule="evenodd">
        <g id="SV-Dashboard-b" transform="translate(-30.000000, -449.000000)" fill="#FFFFFF" fill-rule="nonzero">
            <g id="Sidebar">
                <path d="M48,449 L32,449 C30.89,449 30.01,449.89 30.01,451 L30,463 C30,464.11 30.89,465 32,465 L48,465 C49.11,465 50,464.11 50,463 L50,451 C50,449.89 49.11,449 48,449 Z M48,463 L32,463 L32,457 L48,457 L48,463 Z M48,453 L32,453 L32,451 L48,451 L48,453 Z" id="ico-Withdrawal"></path>
            </g>
        </g>
    </g>
</svg>