<svg xmlns="http://www.w3.org/2000/svg" width="22" height="22" viewBox="0 0 22 22">
    <g fill="none" fill-rule="evenodd">
        <circle cx="11" cy="11" r="11" fill="#00ADC7"/>
        <circle cx="11" cy="11" r="5" fill="#FFF"/>
    </g>
</svg>
